<?xml version="1.0" encoding="utf-8"?>
<!-- Generator: Adobe Illustrator 15.0.0, SVG Export Plug-In . SVG Version: 6.00 Build 0)  -->
<!DOCTYPE svg PUBLIC "-//W3C//DTD SVG 1.1//EN" "http://www.w3.org/Graphics/SVG/1.1/DTD/svg11.dtd">
<svg version="1.1" id="Layer_1" xmlns="http://www.w3.org/2000/svg" xmlns:xlink="http://www.w3.org/1999/xlink" x="0px" y="0px"
	 width="20px" height="20px" viewBox="0 0 20 20" enable-background="new 0 0 20 20" xml:space="preserve">
<g id="cheese">
	<path fill="#434345" d="M16.774,9.016c-0.004-0.027-0.01-0.053-0.017-0.079c-0.006-0.013-0.008-0.026-0.015-0.039
		c-0.002-0.004-0.002-0.009-0.004-0.014c-0.013-0.023-0.029-0.041-0.045-0.06c-0.006-0.006-0.011-0.014-0.017-0.021
		c-0.026-0.027-0.062-0.049-0.097-0.064c-0.008-0.003-0.016-0.003-0.022-0.007c-0.03-0.01-0.061-0.016-0.093-0.018
		c-0.005,0-0.01-0.003-0.016-0.003c-0.008,0-0.019,0.005-0.027,0.005c-0.014,0.001-0.027,0-0.045,0.003l-7.145,1.624
		c-0.011,0.002-0.02,0.008-0.027,0.011c-0.02,0.007-0.039,0.016-0.057,0.026c-0.02,0.011-0.035,0.021-0.053,0.035
		c-0.015,0.014-0.027,0.027-0.041,0.043c-0.013,0.017-0.023,0.033-0.035,0.052c-0.009,0.018-0.017,0.034-0.021,0.055
		c-0.006,0.021-0.01,0.041-0.014,0.064c0,0.01-0.006,0.02-0.006,0.03v3.571c0,0.02,0.002,0.037,0.006,0.055
		c0.015,0.091,0.408,2.22,3.893,2.22c0.044,0,0.086-0.009,0.126-0.022c0.038-0.018,0.073-0.043,0.104-0.072l3.571-3.572
		c0.062-0.061,0.097-0.145,0.097-0.229V9.036C16.778,9.028,16.774,9.023,16.774,9.016z M15.319,9.626l-2.564,2.332
		c-1.979-0.026-2.719-0.679-2.984-1.069L15.319,9.626z M9.631,14.199v-2.51c0.501,0.434,1.39,0.854,2.923,0.908v3.248
		C10.087,15.734,9.677,14.393,9.631,14.199z M13.204,15.396v-2.969l2.923-2.658v2.705L13.204,15.396z"/>
	<path fill="#434345" d="M14.312,13.096c-0.349,0-0.619,0.428-0.619,0.975s0.271,0.974,0.619,0.974c0.348,0,0.621-0.427,0.621-0.974
		S14.657,13.096,14.312,13.096z"/>
	<path fill="#434345" d="M15.381,11.473c-0.218,0-0.392,0.213-0.392,0.486s0.174,0.486,0.392,0.486c0.221,0,0.394-0.213,0.394-0.486
		S15.602,11.473,15.381,11.473z"/>
	<path fill="#434345" d="M14.196,11.146c-0.282,0-0.506,0.285-0.506,0.649c0,0.365,0.224,0.649,0.506,0.649
		c0.283,0,0.506-0.284,0.506-0.649C14.702,11.432,14.479,11.146,14.196,11.146z"/>
</g>
<g id="milk_3_">
	<path fill="#434345" d="M7.784,4.002c0-0.28-0.229-0.507-0.508-0.507H5.249c-0.28,0-0.508,0.227-0.508,0.507v0.507h3.043V4.002
		L7.784,4.002z"/>
	<path fill="#434345" d="M9.305,8.482L9.278,8.403C9.259,8.348,8.875,7.209,8.11,5.902c0.108-0.093,0.182-0.226,0.182-0.38
		c0-0.28-0.229-0.506-0.508-0.506H4.743c-0.28,0-0.508,0.227-0.508,0.506c0,0.154,0.072,0.288,0.181,0.38
		c-0.765,1.307-1.15,2.446-1.168,2.501L3.223,8.482v0.589c0,0.185,0.054,0.357,0.14,0.507c-0.086,0.149-0.14,0.321-0.14,0.506v0.507
		c0,0.187,0.054,0.358,0.14,0.507c-0.086,0.149-0.14,0.322-0.14,0.508v0.506c0,0.188,0.054,0.356,0.14,0.508
		c-0.086,0.148-0.14,0.32-0.14,0.507v0.507c0,0.814,0.539,2.027,2.027,2.027h0.934h0.161h0.934c1.487,0,2.027-1.213,2.027-2.027
		v-0.507c0-0.187-0.054-0.358-0.143-0.507c0.089-0.15,0.143-0.32,0.143-0.508v-0.506c0-0.185-0.054-0.356-0.143-0.506
		c0.089-0.15,0.143-0.322,0.143-0.508v-0.507c0-0.185-0.054-0.357-0.143-0.506c0.089-0.15,0.143-0.322,0.143-0.507L9.305,8.482
		L9.305,8.482z M4.235,10.47h0.186c0.011,0,0.02,0,0.027,0.001c0.009,0.001,0.019,0.003,0.023,0.005
		c0.016,0.007,0.023,0.012,0.029,0.019c0.006,0.005,0.012,0.014,0.018,0.026l0.318,0.588c0.005,0.008,0.008,0.016,0.012,0.023
		c0.004-0.009,0.01-0.018,0.012-0.025l0.315-0.586c0.007-0.012,0.013-0.021,0.019-0.027c0.006-0.006,0.015-0.012,0.025-0.017
		c0.012-0.004,0.02-0.005,0.028-0.007c0.007,0,0.016-0.001,0.026-0.001H5.46v1.137H5.212v-0.656l-0.248,0.465
		c-0.01,0.02-0.023,0.035-0.039,0.046c-0.02,0.011-0.039,0.017-0.062,0.017H4.836c-0.022,0-0.043-0.006-0.062-0.016
		c-0.019-0.012-0.031-0.027-0.043-0.046l-0.248-0.466v0.656H4.235V10.47L4.235,10.47z M8.291,13.634c0,0.169-0.05,1.015-1.015,1.015
		H6.343H6.182H5.248c-0.927,0-1.011-0.777-1.015-1.015v-0.507H8.29L8.291,13.634L8.291,13.634z M5.737,11.605V10.47H6.01v1.135
		H5.737z M6.983,11.37v0.235H6.288V10.47H6.56v0.899L6.983,11.37L6.983,11.37z M8.042,11.605c-0.03,0-0.055-0.004-0.072-0.016
		c-0.014-0.008-0.029-0.021-0.04-0.04l-0.298-0.39c-0.006-0.008-0.012-0.014-0.02-0.016c-0.004-0.002-0.015-0.006-0.037-0.006H7.55
		v0.467H7.278V10.47H7.55v0.445h0.01c0.018,0,0.027-0.001,0.031-0.004c0.008-0.003,0.012-0.007,0.018-0.015l0.293-0.371
		c0.017-0.02,0.033-0.035,0.053-0.042c0.021-0.009,0.041-0.013,0.066-0.013h0.246l-0.404,0.502c-0.011,0.012-0.02,0.021-0.028,0.029
		c0,0,0,0,0.002,0c0.014,0.016,0.028,0.029,0.044,0.047l0.411,0.557H8.042z M8.291,9.071H4.235V8.65
		C4.341,8.353,4.78,7.21,5.528,6.03h1.469c0.748,1.18,1.188,2.323,1.294,2.62V9.071z"/>
</g>
</svg>
