<?xml version="1.0" encoding="utf-8"?>
<!-- Generator: Adobe Illustrator 15.0.0, SVG Export Plug-In . SVG Version: 6.00 Build 0)  -->
<!DOCTYPE svg PUBLIC "-//W3C//DTD SVG 1.1//EN" "http://www.w3.org/Graphics/SVG/1.1/DTD/svg11.dtd">
<svg version="1.1" id="Layer_1" xmlns="http://www.w3.org/2000/svg" xmlns:xlink="http://www.w3.org/1999/xlink" x="0px" y="0px"
	 width="20px" height="20px" viewBox="0 0 20 20" enable-background="new 0 0 20 20" xml:space="preserve">
<g id="pear">
	<path fill="#434345" d="M9.999,17.333c-2.679,0-4.856-1.906-4.856-4.25c0-1.032,0.434-1.763,0.816-2.409
		C6.221,10.23,6.468,9.812,6.57,9.315c0.254-1.192,0.776-3.671,2.688-3.671c0.233,0,0.483,0.04,0.74,0.119
		c0.259-0.079,0.507-0.119,0.741-0.119c1.912,0,2.436,2.479,2.688,3.671c0.104,0.497,0.352,0.915,0.615,1.359
		c0.381,0.646,0.812,1.377,0.812,2.409C14.857,15.427,12.679,17.333,9.999,17.333z M9.259,6.858c-0.649,0-1.099,0.81-1.498,2.707
		c-0.147,0.692-0.472,1.242-0.758,1.727c-0.347,0.585-0.646,1.092-0.646,1.791c0,1.674,1.633,3.036,3.642,3.036
		s3.644-1.362,3.644-3.036c0-0.699-0.298-1.206-0.646-1.791c-0.285-0.485-0.61-1.035-0.759-1.727
		c-0.399-1.897-0.848-2.707-1.498-2.707c-0.151,0-0.326,0.038-0.523,0.113L9.999,7.056L9.783,6.971
		C9.585,6.896,9.41,6.858,9.259,6.858z"/>
	<path fill="#434345" d="M8.217,12.342c0.111-0.277,0.627-0.912,0.905-0.803c0.274,0.111,0.209,0.929,0.098,1.205
		c-0.108,0.277-0.425,0.412-0.702,0.3C8.24,12.934,8.107,12.619,8.217,12.342z"/>
	<path fill="#434345" d="M11.783,12.342c-0.112-0.277-0.629-0.912-0.905-0.803c-0.274,0.111-0.209,0.929-0.097,1.205
		c0.109,0.277,0.424,0.412,0.701,0.3C11.759,12.934,11.893,12.619,11.783,12.342z"/>
	<path fill="#434345" d="M9.999,7.012c-0.334,0-0.606-0.272-0.606-0.607c0-0.887-0.479-1.547-0.484-1.553
		C8.71,4.583,8.763,4.205,9.029,4.004c0.268-0.201,0.646-0.15,0.847,0.116c0.032,0.04,0.731,0.977,0.731,2.285
		C10.607,6.74,10.335,7.012,9.999,7.012z"/>
	<path fill="#434345" d="M9.999,6.612c-0.037,0-0.074-0.007-0.112-0.021c-0.154-0.063-0.23-0.24-0.17-0.395
		c0.016-0.033,1.354-3.263,4.594-2.614c0.164,0.033,0.271,0.193,0.237,0.357c-0.034,0.165-0.201,0.271-0.356,0.238
		c-2.763-0.552-3.863,2.13-3.908,2.244C10.234,6.541,10.12,6.612,9.999,6.612z"/>
	<path fill="#434345" d="M12.896,5.403c-0.783,0-1.549-0.456-1.66-0.835c-0.078-0.253,0.072-0.592,0.17-0.771
		c0.134-0.25,0.523-0.853,1.244-1.069c0.135-0.041,0.28-0.061,0.43-0.061c0.839,0,1.633,0.645,1.667,0.673
		c0.095,0.078,0.135,0.207,0.097,0.324c-0.018,0.055-0.436,1.37-1.414,1.664C13.261,5.378,13.081,5.403,12.896,5.403z M13.079,3.274
		c-0.089,0-0.177,0.011-0.255,0.035c-0.659,0.198-1.01,0.937-1.004,1.108c0.054,0.064,0.528,0.379,1.076,0.379
		c0.123,0,0.246-0.017,0.355-0.051c0.459-0.136,0.785-0.7,0.936-1.061C13.951,3.526,13.506,3.274,13.079,3.274z"/>
</g>
</svg>
