<?xml version="1.0" encoding="utf-8"?>
<!-- Generator: Adobe Illustrator 15.0.0, SVG Export Plug-In . SVG Version: 6.00 Build 0)  -->
<!DOCTYPE svg PUBLIC "-//W3C//DTD SVG 1.1//EN" "http://www.w3.org/Graphics/SVG/1.1/DTD/svg11.dtd">
<svg version="1.1" id="Layer_1" xmlns="http://www.w3.org/2000/svg" xmlns:xlink="http://www.w3.org/1999/xlink" x="0px" y="0px"
	 width="20px" height="20px" viewBox="0 0 20 20" enable-background="new 0 0 20 20" xml:space="preserve">
<g id="pig_1_">
	<path fill="#434345" d="M6.769,7.615c-1.521,0-2.668-2.102-2.795-2.342C3.845,5.025,3.941,4.72,4.188,4.59
		c0.053-0.027,1.296-0.673,2.428-0.673c0.588,0,1.062,0.169,1.407,0.501c1.143,1.1,0.974,1.885,0.927,2.032
		C8.904,6.596,8.599,7.339,7.033,7.595C6.945,7.608,6.857,7.615,6.769,7.615z M5.155,5.267c0.406,0.606,1.086,1.426,1.716,1.326
		c0.753-0.122,1.021-0.357,1.101-0.448c-0.014-0.12-0.101-0.467-0.649-0.995C7.171,5.004,6.935,4.931,6.617,4.931
		C6.134,4.931,5.569,5.104,5.155,5.267z"/>
	<path fill="#434345" d="M14.464,6.505c-0.41,0.38-0.9,0.665-1.414,0.582c-1.334-0.219-1.517-0.796-1.517-0.796
		S11.378,5.75,12.241,4.87c-0.689-0.286-1.447-0.445-2.24-0.445c-0.795,0-1.55,0.159-2.238,0.445c0.86,0.88,0.705,1.421,0.705,1.421
		S8.287,6.868,6.951,7.087C6.439,7.17,5.95,6.885,5.539,6.505c-0.854,1.015-1.368,2.32-1.368,3.748c0,3.221,2.61,5.83,5.83,5.83
		c3.219,0,5.829-2.609,5.829-5.83C15.83,8.826,15.314,7.52,14.464,6.505z M11.522,7.965c0.419,0,0.76,0.34,0.76,0.761
		c0,0.419-0.341,0.761-0.76,0.761c-0.422,0-0.762-0.342-0.762-0.761C10.761,8.305,11.101,7.965,11.522,7.965z M8.48,7.965
		c0.418,0,0.761,0.34,0.761,0.761c0,0.419-0.343,0.761-0.761,0.761c-0.421,0-0.761-0.342-0.761-0.761
		C7.72,8.305,8.06,7.965,8.48,7.965z M10.001,14.555c-1.539,0-2.787-0.832-2.787-1.858c0-1.025,1.856-2.324,2.787-2.324
		c0.93,0,2.787,1.299,2.787,2.324C12.788,13.723,11.54,14.555,10.001,14.555z"/>
	<path fill="#434345" d="M13.23,7.615L13.23,7.615c-0.087,0-0.175-0.007-0.263-0.021c-1.564-0.256-1.873-0.998-1.918-1.145
		c-0.045-0.147-0.213-0.934,0.928-2.032c0.347-0.332,0.818-0.501,1.406-0.501c1.133,0,2.377,0.646,2.428,0.674
		c0.248,0.129,0.344,0.435,0.214,0.683C15.9,5.514,14.753,7.615,13.23,7.615z M12.03,6.145c0.079,0.091,0.348,0.326,1.102,0.448
		c0.621,0.104,1.309-0.719,1.715-1.325c-0.394-0.154-0.957-0.337-1.461-0.337c-0.316,0-0.554,0.073-0.705,0.219
		C12.132,5.678,12.044,6.024,12.03,6.145z"/>
	<circle fill="#434345" cx="9.24" cy="12.789" r="0.507"/>
	<circle fill="#434345" cx="10.761" cy="12.788" r="0.506"/>
</g>
</svg>
