<?xml version="1.0" encoding="utf-8"?>
<!-- Generator: Adobe Illustrator 26.3.1, SVG Export Plug-In . SVG Version: 6.00 Build 0)  -->
<svg version="1.1" id="Layer_1" xmlns="http://www.w3.org/2000/svg" xmlns:xlink="http://www.w3.org/1999/xlink" x="0px" y="0px"
	 viewBox="0 0 25 25" style="enable-background:new 0 0 25 25;" xml:space="preserve">
<path d="M22.7,10.8c-0.7-1-1.6-1.6-2.6-2c0.4-0.3,0.8-0.6,1.2-0.9c1.1-1.2,1.6-3,1.4-4.8l-0.1-0.4l-0.4-0.1
	c-1.9-0.3-3.7,0.3-4.9,1.5c-0.3,0.3-0.6,0.7-0.8,1.1c-0.4-1.1-1.1-2.1-2.1-2.8L14,2.1l-0.3,0.2c-1.5,1.1-2.4,2.8-2.4,4.5
	c-0.2-0.3-0.5-0.5-0.8-0.7l-0.3-0.2L9.8,6.1c-1.4,1.1-2.3,2.6-2.4,4.2C7.3,10.1,7,10,6.8,9.8L6.5,9.5L6.2,9.8
	c-1.5,1.2-2.4,2.8-2.4,4.6c0,1.6,0.7,3.1,1.9,4.2l-3.4,3.4l0.7,0.7l3.4-3.4L7,19.8c1,1,2.2,1.5,3.5,1.5c0.1,0,0.2,0,0.3,0
	c1.7-0.1,3.3-1,4.4-2.4l0.2-0.3l-0.2-0.3c-0.2-0.2-0.4-0.4-0.5-0.6c1.6-0.2,3.1-1,4.2-2.4l0.2-0.3l-0.2-0.3
	c-0.2-0.3-0.4-0.5-0.7-0.7c0,0,0.1,0,0.1,0c1.7-0.1,3.3-1,4.4-2.4l0.2-0.3L22.7,10.8z M18,4.8c0.9-0.9,2.2-1.4,3.6-1.3
	c0.1,1.3-0.3,2.6-1.2,3.5c-0.5,0.6-1.5,1.3-3,1.3h-0.8C16.6,7,17,5.7,18,4.8z M14,3.4c1,0.9,1.6,2.1,1.7,3.3c0.1,0.8-0.1,2-1.2,3
	l-0.6,0.6c-1.1-0.9-1.6-2.1-1.6-3.4C12.3,5.6,12.9,4.4,14,3.4z M13.2,11.1l-0.3,0.3c0-0.2,0-0.4,0-0.6C13,10.9,13.1,11,13.2,11.1z
	 M10.2,7.2c1,0.9,1.6,2.1,1.7,3.3c0.1,0.8-0.1,2-1.2,3l-0.2,0.2c-0.1,0.1-0.3,0.3-0.4,0.4c-1.1-0.9-1.6-2.1-1.6-3.4
	C8.5,9.4,9.1,8.2,10.2,7.2z M4.8,14.3c0-1.3,0.6-2.5,1.7-3.5c1,0.9,1.6,2.1,1.7,3.3c0.1,0.8-0.1,2-1.2,3l-0.6,0.6
	C5.4,16.8,4.8,15.6,4.8,14.3z M9.2,14.7c0.1,0.1,0.1,0.1,0.2,0.2L9.2,15C9.2,14.9,9.2,14.8,9.2,14.7z M10.1,15.6l0.2,0.2
	c-0.2,0-0.4,0-0.5,0.1L10.1,15.6z M10.8,20.2c-0.8,0-2-0.1-3-1.2l-0.6-0.6c0.9-1.1,2.1-1.6,3.4-1.6c0.5,0,1,0.1,1.4,0.3
	c0.2,0.1,0.4,0.2,0.5,0.2c0.5,0.3,1.1,0.7,1.5,1.2C13.2,19.5,12,20.2,10.8,20.2z M14.4,16.6c-0.4,0-0.8,0-1.3-0.1
	c-0.3-0.1-0.5-0.2-0.8-0.3c-0.3-0.2-0.6-0.4-0.9-0.7l-0.5-0.6l0.1-0.1c0.9-1,2.1-1.5,3.3-1.5c1.3,0,2.5,0.6,3.5,1.7
	C16.9,15.9,15.7,16.5,14.4,16.6z M14.3,12.2L14.3,12.2c-0.3,0-0.5,0-0.8,0.1l0.5-0.5L14.3,12.2C14.3,12.2,14.3,12.2,14.3,12.2z
	 M18.3,12.8c-0.8,0.1-2-0.1-3-1.2l-0.6-0.6c0.9-1.1,2.1-1.6,3.4-1.6c1.3,0,2.5,0.6,3.5,1.7C20.7,12.1,19.5,12.7,18.3,12.8z"/>
</svg>
