<?xml version="1.0" encoding="utf-8"?>
<!-- Generator: Adobe Illustrator 26.0.3, SVG Export Plug-In . SVG Version: 6.00 Build 0)  -->
<svg version="1.1" id="Layer_1" xmlns="http://www.w3.org/2000/svg" xmlns:xlink="http://www.w3.org/1999/xlink" x="0px" y="0px"
	 viewBox="0 0 25 25" style="enable-background:new 0 0 25 25;" xml:space="preserve">
<rect x="3.9" y="15.6" style="fill:none;stroke:#000000;stroke-miterlimit:10;" width="6" height="6"/>
<rect x="15.1" y="15.6" style="fill:none;stroke:#000000;stroke-miterlimit:10;" width="6" height="6"/>
<rect x="9.4" y="2.7" style="fill:none;stroke:#000000;stroke-miterlimit:10;" width="6" height="6"/>
<polyline style="fill:none;stroke:#000000;stroke-miterlimit:10;" points="6.9,15.6 6.9,12.1 18.1,12.1 18.1,15.6 "/>
<line style="fill:none;stroke:#000000;stroke-miterlimit:10;" x1="12.4" y1="12.1" x2="12.4" y2="8.7"/>
</svg>
