<?xml version="1.0" encoding="utf-8"?>
<!-- Generator: Adobe Illustrator 26.3.1, SVG Export Plug-In . SVG Version: 6.00 Build 0)  -->
<svg version="1.1" id="Layer_1" xmlns="http://www.w3.org/2000/svg" xmlns:xlink="http://www.w3.org/1999/xlink" x="0px" y="0px"
	 viewBox="0 0 25 25" style="enable-background:new 0 0 25 25;" xml:space="preserve">
<g>
	<path d="M12.5,4.8c5.1,0,9.2,4.1,9.2,9.2s-4.1,9.2-9.2,9.2S3.3,19.1,3.3,14S7.4,4.8,12.5,4.8 M12.5,3.8C6.9,3.8,2.3,8.4,2.3,14
		s4.6,10.2,10.2,10.2S22.7,19.7,22.7,14S18.1,3.8,12.5,3.8L12.5,3.8z"/>
</g>
<g>
	<line style="fill:none;stroke:#000000;stroke-miterlimit:10;" x1="12.5" y1="1.7" x2="12.5" y2="4.4"/>
</g>
<line style="fill:none;stroke:#000000;stroke-miterlimit:10;" x1="10" y1="1.7" x2="15" y2="1.7"/>
<line style="fill:none;stroke:#000000;stroke-miterlimit:10;" x1="18.5" y1="6.1" x2="19.6" y2="4.7"/>
<line style="fill:none;stroke:#000000;stroke-miterlimit:10;" x1="12.5" y1="8" x2="12.5" y2="15"/>
</svg>
