<?xml version="1.0" encoding="utf-8"?>
<!-- Generator: Adobe Illustrator 26.0.1, SVG Export Plug-In . SVG Version: 6.00 Build 0)  -->
<svg version="1.1" id="Layer_1" xmlns="http://www.w3.org/2000/svg" xmlns:xlink="http://www.w3.org/1999/xlink" x="0px" y="0px"
	 viewBox="0 0 112.9 24" style="enable-background:new 0 0 112.9 24;" xml:space="preserve">
<path d="M17.4,21.5c-0.2,0-0.4,0-0.5-0.1L12,18.9l-4.9,2.4c-0.4,0.2-0.9,0.2-1.2-0.1c-0.4-0.3-0.5-0.7-0.5-1.1l0.8-5.4l-3.8-3.9
	C2.1,10.5,2,10.1,2.2,9.7C2.3,9.3,2.6,9,3.1,8.9L8.5,8L11,3.2c0.2-0.4,0.6-0.6,1-0.6s0.8,0.2,1,0.6l0,0L15.5,8l5.4,0.9
	c0.4,0.1,0.8,0.4,0.9,0.8s0,0.9-0.3,1.2l-3.8,3.9l0.8,5.4c0.1,0.4-0.1,0.9-0.5,1.1C17.9,21.4,17.6,21.5,17.4,21.5z M17.2,20.3
	L17.2,20.3L17.2,20.3z M3.8,10.2l3.6,3.6c0.3,0.3,0.4,0.6,0.3,1l-0.8,5.1l4.6-2.3c0.3-0.2,0.7-0.2,1,0l4.6,2.3l-0.8-5.1
	c-0.1-0.4,0.1-0.7,0.3-1l3.6-3.6l-5-0.8c-0.4-0.1-0.7-0.3-0.8-0.6L12,4.2L9.6,8.7C9.5,9.1,9.2,9.3,8.8,9.4L3.8,10.2z M15.6,8.1
	L15.6,8.1L15.6,8.1z"/>
<path d="M28.8,21.5c-0.2,0-0.5-0.1-0.7-0.2c-0.4-0.3-0.5-0.7-0.5-1.1l0.8-5.4l-3.8-3.9c-0.3-0.3-0.4-0.8-0.3-1.2s0.5-0.7,0.9-0.8
	L30.6,8l2.5-4.8c0.2-0.4,0.6-0.6,1-0.6l0,0c0.4,0,0.8,0.2,1,0.6l0,0L37.7,8l5.4,0.9C43.5,9,43.9,9.3,44,9.7s0,0.9-0.3,1.2l-3.8,3.9
	l0.8,5.4c0.1,0.4-0.1,0.9-0.5,1.1c-0.4,0.3-0.8,0.3-1.2,0.1L34.1,19l-4.9,2.4C29.2,21.4,29,21.5,28.8,21.5z M34.2,17.5
	c0.2,0,0.4,0,0.5,0.1l4.6,2.3l-0.8-5.1c-0.1-0.4,0.1-0.7,0.3-1l3.6-3.6l-5-0.8c-0.4-0.1-0.7-0.3-0.8-0.6l-2.4-4.5l-2.4,4.5
	c-0.2,0.3-0.5,0.6-0.8,0.6l-5,0.8l3.6,3.6c0.3,0.3,0.4,0.6,0.3,1l-0.8,5.1l4.6-2.3C33.8,17.5,34,17.5,34.2,17.5z M39.9,14.6
	L39.9,14.6L39.9,14.6z M37.8,8.1L37.8,8.1L37.8,8.1z M34,3.8L34,3.8L34,3.8z"/>
<path d="M51,21.5c-0.2,0-0.5-0.1-0.7-0.2c-0.4-0.3-0.5-0.7-0.5-1.1l0.8-5.4l-3.8-3.9c-0.3-0.3-0.4-0.8-0.3-1.2s0.5-0.7,1-0.8L52.8,8
	l2.5-4.8c0.2-0.4,0.6-0.6,1-0.6s0.8,0.2,1,0.6L59.9,8l5.4,0.9c0.4,0.1,0.8,0.4,0.9,0.8s0,0.9-0.3,1.2l-3.8,3.9l0.8,5.4
	c0.1,0.4-0.1,0.9-0.5,1.1c-0.4,0.3-0.8,0.3-1.2,0.1L56.3,19l-4.9,2.4C51.3,21.4,51.2,21.5,51,21.5z M48.1,10.2l3.6,3.6
	c0.3,0.3,0.4,0.6,0.3,1l-0.8,5.1l4.6-2.3c0.3-0.2,0.7-0.2,1,0l4.6,2.3l-0.8-5.1c-0.1-0.4,0.1-0.7,0.3-1l3.6-3.6l-5-0.8
	c-0.4-0.1-0.7-0.3-0.8-0.6l-2.4-4.5L54,8.7c-0.2,0.3-0.5,0.6-0.8,0.6L48.1,10.2z M62.1,14.6L62.1,14.6L62.1,14.6z M65.1,10.3
	L65.1,10.3L65.1,10.3z M56.2,3.8L56.2,3.8L56.2,3.8z"/>
<path d="M73.2,21.5c-0.2,0-0.5-0.1-0.7-0.2C72.1,21,72,20.6,72,20.1l0.8-5.4L69,10.9c-0.3-0.3-0.4-0.8-0.3-1.2s0.5-0.7,0.9-0.8L75,8
	l2.5-4.8c0.2-0.4,0.6-0.6,1-0.6s0.8,0.2,1,0.6L82.1,8l5.4,0.9c0.4,0.1,0.8,0.4,0.9,0.8s0,0.9-0.3,1.2l-3.8,3.9l0.8,5.4
	c0.1,0.4-0.1,0.9-0.5,1.1c-0.4,0.3-0.8,0.3-1.2,0.1L78.5,19l-4.9,2.4C73.5,21.4,73.4,21.5,73.2,21.5z M78.6,17.5
	c0.2,0,0.4,0,0.5,0.1l4.6,2.3l-0.8-5.1c-0.1-0.4,0.1-0.7,0.3-1l3.6-3.6l-5-0.8c-0.4-0.1-0.7-0.3-0.8-0.6l-2.4-4.5l-2.4,4.5
	c-0.2,0.3-0.5,0.6-0.8,0.6l-5,0.8l3.6,3.6c0.3,0.3,0.4,0.6,0.3,1l-0.8,5.1l4.6-2.3C78.2,17.5,78.4,17.5,78.6,17.5z M72.9,14.6
	L72.9,14.6L72.9,14.6z M87.3,10.3L87.3,10.3L87.3,10.3z M78.4,3.8L78.4,3.8L78.4,3.8z"/>
<path d="M95.4,21.5c-0.2,0-0.5-0.1-0.7-0.2c-0.4-0.3-0.5-0.7-0.5-1.1l0.8-5.4l-3.8-3.9c-0.3-0.3-0.4-0.8-0.3-1.2s0.5-0.7,0.9-0.8
	L97.2,8l2.5-4.8c0.2-0.4,0.6-0.6,1-0.6l0,0c0.4,0,0.8,0.2,1,0.6l2.5,4.8l5.4,0.9c0.4,0.1,0.8,0.4,0.9,0.8s0,0.9-0.3,1.2l-3.8,3.9
	l0.8,5.4c0.1,0.4-0.1,0.9-0.5,1.1c-0.4,0.3-0.8,0.3-1.2,0.1l-4.9-2.4l-4.9,2.4C95.7,21.4,95.6,21.5,95.4,21.5z M100.8,17.5
	c0.2,0,0.4,0,0.5,0.1l4.6,2.3l-0.8-5.1c-0.1-0.4,0.1-0.7,0.3-1l3.6-3.6l-5-0.8c-0.4-0.1-0.7-0.3-0.8-0.6l-2.4-4.5l-2.4,4.5
	c-0.2,0.3-0.5,0.6-0.8,0.6l-5,0.8l3.6,3.6c0.3,0.3,0.4,0.6,0.3,1l-0.8,5.1l4.6-2.3C100.4,17.5,100.6,17.5,100.8,17.5z M109.5,10.3
	L109.5,10.3L109.5,10.3z M100.6,3.8L100.6,3.8L100.6,3.8z"/>
<path d="M3.5,10.1l3.7,3.7c0.3,0.3,0.4,0.6,0.3,1l-0.8,5.3l4.8-2.4c0.3-0.2,0.7-0.2,1,0l4.8,2.4l-0.8-5.3c-0.1-0.4,0.1-0.7,0.3-1
	l3.7-3.7l-5.2-0.8c-0.4-0.1-0.7-0.3-0.8-0.6L12,3.9L9.5,8.6C9.4,9,9.1,9.2,8.7,9.3L3.5,10.1z"/>
<path d="M25.7,10.1l3.7,3.7c0.3,0.3,0.4,0.6,0.3,1l-0.8,5.3l4.8-2.4c0.3-0.2,0.7-0.2,1,0l4.8,2.4l-0.8-5.3c-0.1-0.4,0.1-0.7,0.3-1
	l3.7-3.7l-5.2-0.8c-0.4-0.1-0.7-0.3-0.8-0.6l-2.5-4.8l-2.5,4.7c-0.1,0.4-0.4,0.6-0.8,0.7L25.7,10.1z"/>
<path d="M56.3,3.9l-2.5,4.7C53.7,9,53.4,9.2,53,9.3l-5.2,0.8l3.7,3.7c0.3,0.3,0.4,0.6,0.3,1L51,20.2l4.8-2.4
	c0.2-0.1,0.3-0.2,0.5-0.2L56.3,3.9z"/>
</svg>
