<?xml version="1.0" encoding="utf-8"?>
<!-- Generator: Adobe Illustrator 15.0.0, SVG Export Plug-In . SVG Version: 6.00 Build 0)  -->
<!DOCTYPE svg PUBLIC "-//W3C//DTD SVG 1.1//EN" "http://www.w3.org/Graphics/SVG/1.1/DTD/svg11.dtd">
<svg version="1.1" id="Layer_1" xmlns="http://www.w3.org/2000/svg" xmlns:xlink="http://www.w3.org/1999/xlink" x="0px" y="0px"
	 width="90px" height="50px" viewBox="0 0 90 50" enable-background="new 0 0 90 50" xml:space="preserve">
<path opacity="0.5" fill="#99AAAA" d="M36.453,36.58c0.124,0.229-0.328,0.52-0.549,0.762c-0.162,0.184-0.168,0.606-0.161,0.815
	v0.001c-0.187,0.146-0.421,0.31-0.51,0.141c-0.112-0.214-0.347-0.298-0.421-0.219c-0.075,0.08-0.27,0.533-0.489,0.523
	c-0.219-0.016-0.883,0.095-0.883,0.095l-0.284,0.394c0,0,0.076,0.34,0.076,0.369c0,0.03-0.29,0.514-0.29,0.514h-0.444l-0.189,0.314
	l0.195,0.169l-0.085,0.3l0.149,0.348l-0.398,0.754c0,0,0.299,0.225,0.354,0.563l-0.029,0.149h0.459c0,0,0.832,0.971,0.832,0.986
	c-0.016,0-1.61-0.185-1.785,0.174c-0.175,0.354-0.104,0.813-0.34,0.824c-0.233,0.004-0.457,0.094-0.553,0.264
	c-0.095,0.17-0.139,0.225-0.453,0.14s-0.374-0.233-0.948-0.134c-0.573,0.1-0.843,0.463-1.146,0.349s-0.528-0.249-0.933-0.069
	c-0.404,0.185-1.845,0.752-2.089,0.64c-0.243-0.12-0.528-0.399-0.748-0.351c-0.22,0.06-0.663,0.146-0.853,0.049
	c-0.189-0.094-0.424-0.113-0.854-0.084c-0.428,0.035-0.866-0.039-1.101-0.055c-0.233-0.016-0.265,0.146-0.518,0.062
	c-0.255-0.088-0.664-0.149-0.958-0.051c-0.294,0.1-0.663,0.418-0.873,0.338c-0.208-0.077-0.678-0.037-1.271-0.037
	c-0.593,0-0.588-0.098-0.833-0.159c-0.124-0.034-0.233-0.071-0.348-0.134l0.065-0.547l0.149-0.25l0.358,0.074
	c0,0,0.626-0.468,0.666-0.484c-0.02-0.01-0.107-0.364-0.107-0.387c0-0.021,0.194-0.484,0.194-0.484l0.12-0.03l0.428-0.485
	l0.558-0.444l-0.229-0.313l0.145-0.275l0.075-1.104c0,0-0.325-0.479-0.339-0.479c-0.014,0,0.279-0.562,0.279-0.562L19.4,39.21
	l-0.389-0.026l-0.154-0.318l-0.229,0.125l-0.285-0.104l0.24-0.811l-0.728-0.623l-0.249,0.05l-0.089-0.13
	c0,0,0.239-0.283,0.253-0.294c0.016-0.011,0.499,0.045,0.514,0.05c0.016,0,0.075-0.672,0.075-0.672l0.423-0.057l0.497-0.61
	l-0.497-0.595l0.208-0.762l-0.403-0.271l0.139-0.248V33.07l0.637-0.922l0.423-1.215l0.494-0.578l-1.006-0.815l-0.328,0.004
	l-0.513-0.377l0.393-0.901l0.304-0.504c0,0,0.418-0.021,0.433-0.02c0.015,0.006,0.483,0.1,0.483,0.1l0.408-0.209l0.021-0.583
	l0.053-0.034l0.346-0.214l0.284-0.499l-0.199-0.627l0.075-0.373l-0.045-0.398L21.4,24.84l0.443,0.469l0.483,0.133l0.623,0.707
	l1.131,0.479l0.348,0.542l-0.543,0.499l0.209,0.622l0.2,0.068l0.224-0.146l0.736,0.854l0.061,0.5l0.611,0.091l0.389-0.204
	l0.27-0.627l1.13-0.77c0,0,0,0.271,0,0.285c0,0.018,0.414,0.146,0.414,0.146l0.099,0.293l-0.513,0.229l0.146,0.303l0.407-0.125
	l0.294,0.146l0.04,0.527l-0.334,0.34c0,0,0,0.214,0,0.229c0,0.02,0.294-0.142,0.294-0.142l0.055,0.792l0.449,0.25l0.099,0.452
	l-0.513,0.562c0,0-0.17,0.547-0.184,0.547c0,0.006,0.405,0.164,0.432,0.188c0.01-0.031,0.295-0.496,0.295-0.496l0.557-0.034
	l0.648-0.245l0.225-0.264l0.02-0.396l0.747-0.754l0.269,0.385l0.428-0.017l0.09,0.413c0,0,0.398,0.459,0.391,0.475
	c-0.008,0.021,0.098,0.498,0.098,0.498l0.438,0.309l0.075,0.369l-0.224,0.283l0.119,0.338c0,0-0.483,0.264-0.502,0.264
	c-0.018,0,0.023,0.229,0.023,0.229l0.314,0.15l-0.15,0.323l0.274,0.344l-0.04,0.229c0,0-0.398,0.197-0.418,0.209
	c-0.02,0.011,0.059,0.436,0.059,0.444c0,0.015,0.279,0.08,0.295,0.08c0.015,0,0.045-0.22,0.035-0.231
	c-0.01-0.019,0.408,0.006,0.408,0.006s0.209,0.47,0.209,0.48c0,0.014,0.473-0.211,0.473-0.211l0.559,0.018l0.074-0.396l0.522-0.304
	l0.632,0.016l0.389-0.423l0.289,0.079l-0.293,0.858C36.225,36.107,36.329,36.352,36.453,36.58z"/>
<path opacity="0.5" fill="#99AAAA" d="M32.487,23.729l-0.06,0.18l-0.412,0.777l-0.522,0.089l-0.478,1.077L30.88,26.32l-0.963-0.118
	l-0.104,0.291l-0.262,0.187l-0.143,0.688l0.143,0.194l-0.164,0.151l-0.68-0.032l-0.239,0.233l-0.575-0.075l-0.18,0.217l-1.13,0.769
	l-0.27,0.627l-0.389,0.204l-0.611-0.09l-0.061-0.498l-0.736-0.854l-0.224,0.146l-0.2-0.066l-0.209-0.622l0.543-0.499l-0.348-0.542
	l-1.131-0.479l-0.623-0.708l-0.483-0.133L21.4,24.84l-0.412,0.064l0.045,0.398l-0.075,0.373l0.199,0.627l-0.284,0.499l-0.346,0.215
	c-0.152-0.052-0.406-0.115-0.406-0.115s-0.768,0-0.783-0.006c-0.015-0.004-0.533-0.293-0.533-0.293l-0.792,0.045
	c0,0-1.085-0.229-1.095-0.244c-0.01-0.016-0.414-0.479-0.429-0.479c-0.023,0-0.612,0.408-0.626,0.413
	c-0.016,0.006-0.663,0.188-0.678,0.188c-0.016,0-0.334,0.244-0.334,0.244l-0.503,0.01L13.952,26.9l-0.354-0.185l-0.184-0.757
	l-0.393-0.594l0.029-0.621c0,0,0.09-0.613,0.104-0.628c0.016-0.015-0.911-0.642-0.921-0.657c-0.01-0.015-0.667,0.265-0.667,0.265
	l-0.463-0.503l0.832-0.379l0.567-0.482c0,0,0.005-0.082,0.008-0.177l0.049,0.002l0.259-0.519L14,21.93l-0.04,0.409l0.504,0.005
	l0.05-0.408l0.403,0.184l0.11-0.338l1.69-0.359l1.137-1.542l1.301,0.07l0.508-0.713L19.26,18.55l0.355-1.002l1.221,0.045
	l0.329,0.225l0.673-0.405l0.752-1.44l-0.245-1.287l0.2-0.305l-0.174-0.253l0.519-0.848l-0.22-0.555l0.599-1.355
	c0,0,0.768-0.045,0.812-0.049c0.02-0.003,0.426-0.181,0.888-0.385l0.474,1.077l0.398,0.717l0.488,0.479l0.25,0.966l0.477,0.488
	l0.707,0.168l0.787,0.907c0,0-0.537,0.727-0.498,0.717c0.039-0.01,0.678,0.409,0.678,0.409v1.265l-0.688,0.667l-0.986,0.438
	l0.04,0.508l0.946-0.097l0.628-0.627l0.737,0.306l0.587-0.05l0.538,0.289l-0.449,0.886l0.219,0.349l0.07,0.866l0.816,0.508
	l0.319,0.617l0.607,0.199L32.487,23.729z"/>
<path opacity="0.5" fill="#99AAAA" d="M20.527,27.016l-0.053,0.034l-0.021,0.583l-0.408,0.209c0,0-0.469-0.094-0.483-0.1
	c-0.015-0.006-0.433,0.02-0.433,0.02l-0.304,0.504l-0.393,0.901l0.513,0.377l0.328-0.004l1.006,0.815l-0.494,0.578l-0.423,1.215
	l-0.637,0.922v0.842l-0.139,0.248l0.403,0.27l-0.208,0.762l0.497,0.599l-0.497,0.606l-0.423,0.061c0,0-0.059,0.672-0.075,0.672
	c-0.015-0.005-0.498-0.062-0.514-0.05c-0.015,0.011-0.253,0.294-0.253,0.294l0.089,0.13l0.249-0.05l0.728,0.617l-0.24,0.812
	l0.285,0.102l0.229-0.125l0.154,0.318l0.389,0.028l0.144,0.334c0,0-0.293,0.56-0.279,0.56c0.014,0,0.339,0.481,0.339,0.481
	l-0.075,1.104l-0.145,0.273l0.229,0.312l-0.558,0.446l-0.428,0.486l-0.12,0.028c0,0-0.194,0.47-0.194,0.486
	c0,0.021,0.087,0.377,0.107,0.385c-0.04,0.021-0.666,0.483-0.666,0.483l-0.358-0.071l-0.149,0.25l-0.065,0.545
	c-0.11-0.062-0.225-0.146-0.359-0.269c-0.275-0.25-0.808-0.806-1.211-0.896c-0.405-0.098-0.813-0.045-0.958-0.379
	S14.279,43.029,13.9,42.9c-0.378-0.131-0.817-0.297-0.987-0.653c-0.169-0.356-0.329-0.985-0.778-1.104
	c-0.449-0.108-0.453-0.328-0.638-0.508s-0.259-0.558-0.599-0.584c-0.339-0.021-0.533,0.188-0.633-0.094
	c-0.003-0.007-0.005-0.016-0.008-0.021c-0.001-0.002-0.002-0.006-0.003-0.008l0.633-0.479l0.07-0.434c0,0,0.594-0.416,0.594-0.428
	c0-0.011-0.071-0.254-0.071-0.254s-0.314,0.016-0.324,0.02c-0.014,0-0.172-0.254-0.184-0.254c-0.011,0,0.038-0.438,0.038-0.438
	l0.66,0.033l0.445-0.369c0,0-0.109-0.583-0.098-0.583c0.011,0,0.415-0.086,0.415-0.086l0.235,0.489c0,0,0.358-0.016,0.369-0.016
	c0.011,0,1.169-0.646,1.169-0.646l-0.172-0.852c0,0-0.567-0.285-0.567-0.3c0-0.013-0.079-0.497-0.067-0.497
	c0.011,0,0.519-0.324,0.519-0.324l-0.437-0.716c0,0-0.5-0.219-0.473-0.229c0.025-0.018,0.339-0.854,0.339-0.854l-0.399-0.445
	l-0.306-0.129L12.43,31.6l-0.198-0.386l-0.172-0.274l-0.773-0.191c0,0-0.093-0.432-0.07-0.432c0.022,0,0.403-0.646,0.403-0.646
	l-0.889-0.994c0,0-0.295-0.062-0.307-0.062c-0.01-0.006-0.212-0.305,0.128-0.428c0.34-0.123,0.481-0.136,0.631-0.396
	s0.553-0.837,0.553-0.837s-0.478-0.814-0.661-0.708c-0.183,0.104-0.986,1.331-0.986,1.331s-0.474,0.234-0.474,0.247
	c0,0.011-0.161,0.438-0.161,0.438L8.42,28.432l-0.374,0.135L7.661,28.24l-0.919-0.135c0,0-0.478,0.143-0.512,0.135
	c-0.018-0.004-0.46-0.034-0.822-0.064c0.047-0.107,0.137-0.916,0.137-0.916l0.139-0.188l0.365-0.391l0.239-1.521l0.838-0.498
	l-0.086-0.5c0,0,0.185-0.229,0.185-0.245c0-0.015-0.03-0.364-0.03-0.364s1.192-0.744,1.197-1.052c0.005-0.309-0.174-0.568,0-0.688
	c0.174-0.121,1.378-0.846,1.378-0.846l0.657,0.369l0.778,0.178l0.508,0.648l0.799,0.023c-0.003,0.095-0.008,0.177-0.008,0.177
	l-0.567,0.482l-0.832,0.379l0.463,0.503c0,0,0.657-0.279,0.667-0.265c0.01,0.016,0.937,0.642,0.921,0.657
	c-0.015,0.015-0.104,0.628-0.104,0.628l-0.029,0.621l0.393,0.594l0.184,0.759l0.354,0.178l0.397-0.123l0.503-0.01
	c0,0,0.318-0.244,0.334-0.244c0.015,0,0.662-0.185,0.678-0.188c0.014-0.005,0.604-0.413,0.626-0.413
	c0.015,0.005,0.418,0.47,0.429,0.481c0.01,0.017,1.095,0.242,1.095,0.242l0.792-0.043c0,0,0.518,0.289,0.533,0.293
	c0.015,0.004,0.783,0.004,0.783,0.004S20.375,26.965,20.527,27.016z"/>
<path opacity="0.5" fill="#99AAAA" d="M14.207,36.494c0,0-1.158,0.648-1.169,0.648c-0.011,0-0.369,0.012-0.369,0.012l-0.235-0.489
	c0,0-0.404,0.086-0.415,0.086c-0.011,0,0.098,0.583,0.098,0.583l-0.445,0.369l-0.66-0.033c0,0-0.049,0.438-0.038,0.438
	c0.012,0,0.17,0.254,0.184,0.254c0.01-0.004,0.324-0.02,0.324-0.02s0.071,0.243,0.071,0.254c0,0.012-0.594,0.428-0.594,0.428
	l-0.07,0.434l-0.633,0.479c-0.106-0.24-0.333-0.134-0.453-0.086c-0.124,0.051-0.548-0.004-0.562-0.004
	c-0.016,0-0.748,0.094-0.748,0.094s-0.305-0.418-0.32-0.418c-0.015,0-0.573,0.193-0.573,0.193l-0.14-0.224l0.264-0.351l-0.18-0.787
	l0.245-0.14c0,0-0.479-0.522-0.583-0.758c-0.105-0.229-0.224-0.396-0.574-0.534c-0.35-0.145-0.772-0.389-0.772-0.389L5.771,35.93
	L5.506,35.45l0.08-0.708c0,0-0.199-0.262-0.199-0.274c0-0.012-0.05-0.394-0.05-0.407c0-0.017-0.374-0.396-0.404-0.713
	c-0.03-0.312-0.064-0.453-0.239-0.479c-0.175-0.025-0.584,0.021-0.618-0.438c-0.036-0.459-0.27-0.488-0.136-0.709
	c0.136-0.224,0.424-0.293,0.23-0.771c-0.195-0.477-0.259-0.623-0.066-0.797c0.195-0.178,0.399-0.289,0.414-0.573
	c0.016-0.284-0.095-0.438,0.056-0.579c0.149-0.139,0.783-0.792,0.827-0.812c0.003-0.002,0.004-0.006,0.008-0.017
	c0.361,0.03,0.804,0.062,0.822,0.063C6.265,28.245,6.743,28.1,6.743,28.1l0.919,0.137l0.384,0.326L8.42,28.43l1.034-0.16
	c0,0,0.161-0.432,0.161-0.438s0.474-0.247,0.474-0.247s0.803-1.228,0.986-1.331c0.183-0.104,0.661,0.708,0.661,0.708
	s-0.403,0.575-0.553,0.837c-0.149,0.266-0.291,0.271-0.631,0.396c-0.34,0.123-0.138,0.425-0.128,0.429
	c0.012,0.004,0.307,0.062,0.307,0.062l0.889,0.996c0,0-0.381,0.646-0.403,0.646c-0.022,0,0.07,0.43,0.07,0.43l0.773,0.194
	l0.172,0.272l0.198,0.385l0.212,0.537l0.306,0.131l0.399,0.449c0,0-0.313,0.836-0.339,0.854c-0.027,0.016,0.473,0.229,0.473,0.229
	l0.437,0.715c0,0-0.508,0.328-0.519,0.328c-0.011,0,0.067,0.483,0.067,0.496c0,0.012,0.567,0.299,0.567,0.299L14.207,36.494z"/>
<path opacity="0.5" fill="#99AAAA" d="M83.609,20.688l0.07,0.923l-0.584,0.792l-0.781,0.1l-0.629,0.998l-0.748,0.572l-0.109,3.929
	c0,0,0.264,0.408,0.248,0.408c-0.014,0-0.264,0.215-0.264,0.215h-0.239l-0.413,0.24l-0.205-0.275l-0.672-0.004l-0.221,0.363
	l-0.742-0.084l-0.021,0.289l-0.197,0.15l-0.201-0.24l-0.289,0.39l-0.52-0.052l-0.193,0.496l-0.35,0.063l-0.109-0.17l-0.684,0.09
	c0,0-0.396-0.389-0.396-0.368c-0.006,0.014-0.33,0.166-0.33,0.166l-0.973-1.055l-0.062-0.639l-0.988-1.455l-0.948,0.025L71.9,25.934
	l-1.176-0.896L70.337,25.2l0.131,0.295l-0.37,0.17l-0.408-0.161l-0.553,0.17l-0.109,0.488l-0.414-0.023l-0.543,0.367
	c0,0-0.424-0.408-0.424-0.413c0,0.019-0.883,0.599-0.883,0.599l-0.3-0.174l-0.304,0.188l0.145,0.508l-0.707-0.021l-0.084-0.443
	l-1.259-0.15l-0.294,0.312l-0.475-0.26l0.031-0.188l-0.274,0.045l0.01-0.424l-0.215-0.124l-0.509,0.312c0,0-0.354-0.271-0.368-0.272
	c-0.015-0.006-0.079-0.329-0.079-0.329l-0.318-0.045L60.96,25.93l-0.903,0.098l-1.938,0.968l-0.279-0.394
	c0,0-0.068,0.334-0.078,0.318c-0.011-0.016-0.115-0.26-0.115-0.26l-0.065,0.509l-0.271-0.317l-0.352,0.033l0.159,0.484l-0.226,0.947
	l-0.211,0.119l-0.002,0.019l-0.746-0.097l-0.229,0.271l-0.455-0.254l-0.521,0.062l-0.19-0.16l-0.356-0.051l0.135-0.354l-0.254-0.09
	l-0.037-0.254l0.482-0.354l-0.09-0.582l0.216-0.155l0.099-0.681c0,0-0.225-0.308-0.225-0.33c0-0.021-0.492-0.068-0.492-0.068
	l-0.209-0.537l0.299-0.254l-0.574-0.761l-0.643-0.254L52.58,23.09l-0.518-0.149c0,0-0.172-0.635-0.154-0.679
	c0.015-0.046,0.363-0.501,0.343-0.538c-0.021-0.038-0.144-0.732-0.144-0.732l0.238-0.537l0.146-0.822l0.361,0.119l0.4-0.059
	l0.354-0.636l-0.039-0.717l0.293-0.687c0,0,0.455-0.217,0.479-0.217c0.021,0,0.537-0.184,0.537-0.184l0.147-0.384
	c0,0,0.562-0.224,0.566-0.202c0.008,0.022,0.108,0.441,0.108,0.441s0.311,0.493,0.311,0.47c0-0.022,0.382-0.583,0.382-0.583
	L56.2,16.743l0.11-0.284l0.455,0.522l0.772,0.271l0.476,0.401c0,0,0.672-0.127,0.672-0.15c0-0.022,0.082-0.56,0.082-0.56l0.68-0.097
	c0,0,0.322,0.336,0.367,0.329c0.045-0.007,0.373-0.217,0.373-0.217l-0.136-0.417l0.908,0.141l0.183,0.463l0.447-0.209l0.691,0.316
	l0.508,0.385l0.365-0.385l0.218,0.08l0.063,0.164v0.381l0.062,0.186c0,0,0.52,0.285,0.538,0.292s0.665-0.023,0.665-0.023
	s0.555,0.336,0.572,0.328c0.021-0.007,0.271-0.246,0.271-0.246l0.711,0.494l0.317-0.299l1.084,0.194V19.2l-0.319,0.061l0.036,0.537
	l0.438,0.247l0.301-0.411l1.193-0.358c0,0-0.154-0.867-0.109-0.822c0.044,0.044,0.888,0.276,0.888,0.276l0.294-0.179l0.49,0.104
	l0.055,0.27l-0.104,0.224l0.199,0.104l0.285-0.045l0.188,0.501l0.193,0.448l0.5,0.09l0.336,0.171l0.912-0.112l0.527,0.329
	l0.555-0.229l0.32-0.105l0.152-0.4l0.291-0.112l0.146-0.149l-0.454-1.658c0,0,0.326-0.485,0.353-0.493
	c0.021-0.008,0.292,0.209,0.292,0.209l0.725,0.239c0,0,0.793,0.165,0.807,0.187c0.021,0.022,0.393,0.38,0.393,0.38l0.829,0.194
	c0,0,0.673-0.097,0.69-0.097c0.021,0,0.813,0.007,0.813-0.016c0-0.021,0.345-0.305,0.345-0.305l-0.205-0.66l0.576-0.456l0.275-0.269
	l0.418-0.007l0.441,0.553l0.105,0.418l0.64-0.03l0.245-0.269l0.913,0.269c0.005,0.14,0.024,0.305,0.09,0.487
	c0.189,0.593,0.523,1.686,0.523,1.686L83.609,20.688z"/>
<path fill="#99AAAA" d="M56.68,28.455l-0.033,0.391l-0.504,0.189l-0.312,0.724l0.142,0.318l-0.209,0.099l0.219,0.52l-0.373,0.301
	L55.421,31.5l-0.233,0.227l-0.193,0.397l-0.016,0.662l-0.912,0.33l-0.34-0.289l-0.145,0.394l-0.234-0.229
	c0,0-0.283,0.562-0.298,0.562c-0.013,0-0.987-0.215-0.987-0.215l-0.086,0.215l0.125,0.434l-0.52,0.873h-0.396
	c0,0-0.123,0.434-0.14,0.438c-0.015,0.011-0.239,0.056-0.239,0.056s-0.146-0.225-0.164-0.229c-0.015-0.005-0.354-0.005-0.354-0.005
	s-0.21,0.313-0.229,0.313c-0.018,0-0.365,0-0.365,0l0.055,0.418l-0.525,0.459l-0.262-0.084l0.1-0.229c0,0-0.33-0.515-0.349-0.515
	c-0.021,0-0.479,0.006-0.479,0.006l-0.006-0.209l-0.338,0.015l-0.104,0.265l-0.124-0.064l-0.312,0.357l-0.207-0.023l-0.054-0.186
	l0.25-0.662l-1.075-0.494l-0.172,0.509l-0.338,0.056l-0.39-0.365l0.079-0.398l-0.797-0.309l-0.209,0.479
	c0,0-1.151,0.271-1.292,0.738c-0.14,0.479-0.255,1.59-0.255,1.59l-0.65,0.506l-0.118-0.169l-0.229,0.049l-0.164,0.244h-0.225
	l-0.012-0.164l-0.417-0.028c0,0-0.17,0.192-0.185,0.192c-0.016,0-0.211-0.079-0.211-0.079s-0.368-0.152-0.482-0.005
	c-0.115,0.147-0.18,0.237-0.34,0.265c-0.158,0.024-0.418,0.194-0.428,0.313c-0.011,0.118,0.02,0.345-0.12,0.26
	s-0.18-0.153-0.319-0.08c-0.139,0.075-0.285,0.188-0.384,0.101c-0.1-0.088-0.229-0.117-0.354-0.117s-0.928-0.047-1.031-0.086
	c-0.104-0.039-0.199-0.049-0.311,0.023c-0.107,0.074-0.263,0.221-0.402,0.154c-0.14-0.062-0.439-0.262-0.624-0.115
	c-0.04,0.032-0.089,0.071-0.141,0.112c-0.007-0.209-0.001-0.634,0.161-0.815c0.221-0.24,0.673-0.529,0.549-0.762
	c-0.124-0.229-0.229-0.475-0.229-0.475l0.293-0.859l-0.289-0.079l-0.388,0.42l-0.632-0.016l-0.522,0.304l-0.074,0.396l-0.559-0.019
	c0,0-0.473,0.228-0.473,0.209c0-0.015-0.209-0.479-0.209-0.479s-0.418-0.021-0.408-0.006c0.01,0.018-0.021,0.231-0.035,0.231
	c-0.016,0-0.295-0.062-0.295-0.08c0-0.015-0.078-0.438-0.059-0.444c0.02-0.01,0.418-0.209,0.418-0.209l0.04-0.229l-0.274-0.344
	l0.15-0.323l-0.314-0.153c0,0-0.041-0.226-0.023-0.226c0.019,0,0.502-0.261,0.502-0.261l-0.119-0.338l0.224-0.283l-0.075-0.372
	l-0.438-0.306c0,0-0.105-0.48-0.098-0.498c0.008-0.019-0.391-0.478-0.391-0.478l-0.09-0.413l-0.428,0.02l-0.269-0.385l-0.747,0.754
	l-0.02,0.394l-0.225,0.264l-0.648,0.245l-0.557,0.034c0,0-0.285,0.465-0.295,0.496c-0.026-0.021-0.432-0.179-0.432-0.185
	c0.014,0,0.184-0.548,0.184-0.548l0.513-0.562l-0.099-0.452l-0.449-0.25l-0.055-0.792c0,0-0.294,0.152-0.294,0.143
	c0-0.018,0-0.229,0-0.229l0.334-0.339l-0.04-0.528l-0.294-0.146l-0.407,0.125l-0.146-0.304l0.513-0.229l-0.099-0.294
	c0,0-0.414-0.131-0.414-0.146c0-0.014,0-0.286,0-0.286l0.18-0.215l0.575,0.075l0.239-0.237l0.68,0.036l0.164-0.155l-0.143-0.19
	l0.143-0.688l0.262-0.188l0.104-0.291l0.963,0.115l0.135-0.471l0.478-1.077l0.522-0.089l0.412-0.777l0.06-0.18l0.015-0.044
	c0,0,0.658-0.561,0.68-0.561s0.41,0.299,0.41,0.299s0.151,0.295,0.146,0.332c-0.005,0.002-0.007,0.003-0.004,0.003
	c0.002,0,0.002-0.001,0.004-0.003c0.052-0.035,0.527-0.25,0.527-0.25l0.686,0.038c0,0,0.352-0.74,0.352-0.762
	c0-0.023-0.082-0.545-0.082-0.545l-0.238-0.105l0.037-1.061l0.402-0.5h0.396l0.373,0.261c0,0,0.516-0.336,0.538-0.336
	s0.358,0,0.358,0l0.531-0.224l1.111-0.089l0.172,0.134c0,0-0.336,0.441-0.32,0.463c0.014,0.022,0.32,0.336,0.32,0.336
	s1.3-1.241,1.3-1.263c-0.022,0,0.329-0.425,0.329-0.425l0.388-0.203c0,0,0.202,0.075,0.225,0.075s0.747-0.165,0.769-0.165
	c0.023,0,0.166,0.21,0.166,0.21l0.754-0.329h0.627l0.186,0.231l0.606-0.187l0.806,0.225c0,0,0.426,0.262,0.463,0.262
	c0.037,0,0.516,0.029,0.516,0.029l0.246-0.208c0,0,0.591,0.126,0.613,0.126c0.021,0,0.98-0.253,0.98-0.253l0.932-0.016l1.096,0.316
	l-0.006,0.027l0.598,0.075l0.628-0.082l0.612,0.157l0.754-0.075h0.002l-0.145,0.822L52.107,21c0,0,0.119,0.695,0.142,0.732
	s-0.328,0.492-0.343,0.538c-0.016,0.044,0.156,0.679,0.156,0.679l0.516,0.149l0.307,0.463l0.643,0.254l0.574,0.761l-0.299,0.254
	l0.209,0.537c0,0,0.494,0.047,0.494,0.068c0,0.022,0.223,0.329,0.223,0.329l-0.097,0.68L54.416,26.6l0.09,0.582l-0.484,0.354
	l0.037,0.254l0.254,0.09l-0.135,0.353l0.357,0.057l0.193,0.163l0.521-0.066l0.455,0.257l0.228-0.275L56.68,28.455z"/>
<path opacity="0.5" fill="#99AAAA" d="M50.038,18.852l-0.136,0.689l-1.096-0.316l-0.932,0.016c0,0-0.965,0.253-0.98,0.253
	c-0.022,0-0.613-0.126-0.613-0.126l-0.246,0.208c0,0-0.479-0.029-0.516-0.029c-0.042,0-0.463-0.262-0.463-0.262L44.25,19.06
	l-0.606,0.187l-0.186-0.231h-0.627l-0.754,0.329c0,0-0.143-0.21-0.166-0.21c-0.021,0-0.746,0.165-0.769,0.165
	s-0.225-0.075-0.225-0.075l-0.388,0.203c0,0-0.352,0.425-0.329,0.425c0,0.022-1.3,1.263-1.3,1.263s-0.307-0.314-0.32-0.336
	c-0.016-0.022,0.32-0.463,0.32-0.463l-0.172-0.134l-1.111,0.089l-0.531,0.224c0,0-0.336,0-0.358,0s-0.538,0.336-0.538,0.336
	l-0.373-0.261h-0.396l-0.402,0.5l-0.037,1.061l0.238,0.105c0,0,0.082,0.522,0.082,0.545c0,0.022-0.352,0.762-0.352,0.762
	l-0.686-0.038c0,0-0.476,0.215-0.527,0.25c0.005-0.037-0.146-0.332-0.146-0.332s-0.388-0.299-0.41-0.299
	c-0.021,0-0.68,0.561-0.68,0.561l-0.015,0.044l-0.371-0.742l-0.607-0.199l-0.319-0.617l-0.816-0.508l-0.07-0.866l-0.219-0.349
	l0.449-0.886l-0.538-0.289l-0.587,0.05l-0.737-0.306l-0.628,0.627l-0.946,0.097l-0.04-0.508l0.986-0.438l0.688-0.667v-1.265
	c0,0-0.639-0.419-0.678-0.409c-0.039,0.01,0.498-0.717,0.498-0.717l-0.787-0.907l-0.707-0.168l-0.477-0.488l-0.25-0.966
	l-0.488-0.479l-0.398-0.717l-0.474-1.077c0.63-0.279,1.361-0.607,1.361-0.607l0.149-0.982l0.562-0.085l1.312-1.815L28.04,7.029
	l0.648-0.643c0,0,0.678,0.498,0.692,0.488c0.016-0.01,0.634-0.399,0.634-0.399l1.102,0.454l0.419-0.434l0.837-0.284l1.122,0.305
	l0.688,0.627l-0.188,0.484l0.407,0.474l-0.123,1.132l0.881,0.024l0.4-0.698l1.057,0.409l0.604-0.513l0.429-1.237l-0.03-0.743
	l0.809-0.588l0.957-0.056l1.221-1.321l0.543-0.265l1.133,0.778c0,0,0.27,1.68,0.284,1.68s0.878,0.998,0.878,0.998l0.852-0.404
	L44.271,7.79l-0.525,0.563c0,0,0.943,0.304,0.933,0.289c-0.009-0.015,0.729,0.01,0.729,0.01l0.464-0.264l0.194,0.713l-0.135,0.514
	l0.422,0.573l-0.373,0.45l0.521,0.444l-0.979,1.311l0.218,0.513c0,0,1.55,0.068,1.592,0.065l0.065,1.214l0.412,0.321l0.328,0.045
	v0.298l0.364,0.239l0.313-0.141l0.582,0.141l-0.164,0.508l0.009,1.151L48.77,16.82l-0.269,0.165l0.134,0.335h0.598l0.5,0.381
	l-0.105,0.462l0.105,0.464L50.038,18.852z"/>
<path opacity="0.5" fill="#99AAAA" d="M86.104,12.691l-0.096,1.406l-1.052,0.873l-0.294,1.65l-0.947,0.699
	c0,0-0.089,0.193-0.078,0.51l-0.912-0.269l-0.246,0.269l-0.637,0.03L81.73,17.44l-0.441-0.553l-0.418,0.007l-0.275,0.269
	L80.02,17.62l0.201,0.665c0,0-0.343,0.284-0.343,0.305c0,0.023-0.792,0.016-0.813,0.016c-0.021,0-0.69,0.097-0.69,0.097
	l-0.829-0.194c0,0-0.372-0.358-0.393-0.38c-0.016-0.022-0.807-0.187-0.807-0.187l-0.725-0.239c0,0-0.27-0.217-0.292-0.209
	c-0.022,0.007-0.353,0.493-0.353,0.493l0.457,1.658l-0.146,0.149L75,19.905l-0.156,0.403l-0.32,0.105l-0.553,0.231l-0.531-0.329
	l-0.91,0.112l-0.336-0.171l-0.502-0.09L71.5,19.718l-0.188-0.501l-0.283,0.045l-0.2-0.104l0.104-0.224l-0.058-0.27l-0.487-0.104
	l-0.293,0.179c0,0-0.848-0.232-0.892-0.276c-0.045-0.045,0.106,0.822,0.106,0.822l-1.19,0.358l-0.304,0.411l-0.438-0.247
	L67.35,19.27l0.318-0.061v-0.396l-1.084-0.194l-0.318,0.299l-0.709-0.494c0,0-0.246,0.239-0.271,0.246
	c-0.021,0.008-0.575-0.328-0.575-0.328s-0.646,0.03-0.665,0.023c-0.021-0.007-0.538-0.292-0.538-0.292l-0.062-0.186v-0.381
	l-0.062-0.164l-0.217-0.08L62.8,17.647l-0.508-0.385L61.6,16.946l-0.447,0.209l-0.182-0.463l-0.91-0.141l0.135,0.417
	c0,0-0.326,0.21-0.372,0.217s-0.365-0.329-0.365-0.329l-0.681,0.097c0,0-0.082,0.538-0.082,0.56c0,0.023-0.674,0.15-0.674,0.15
	l-0.474-0.401l-0.772-0.271l-0.455-0.522l-0.11,0.284l0.192,0.253c0,0-0.383,0.56-0.383,0.583s-0.31-0.47-0.31-0.47
	s-0.106-0.419-0.11-0.441c-0.011-0.021-0.564,0.202-0.564,0.202l-0.149,0.384c0,0-0.517,0.184-0.532,0.184
	c-0.023,0-0.479,0.217-0.479,0.217l-0.291,0.687l0.036,0.717l-0.352,0.636l-0.402,0.059l-0.364-0.119L51.74,19.72l-0.61-0.157
	l-0.63,0.082l-0.6-0.075l0.004-0.027l0.138-0.689l-0.308-0.223l-0.109-0.464l0.109-0.462l-0.5-0.381h-0.598L48.5,16.989l0.271-0.165
	l0.479-0.074l-0.009-1.151l0.163-0.508l-0.58-0.141l-0.312,0.141l-0.365-0.239V14.55l-0.328-0.045l-0.408-0.321l-0.07-1.214l0,0
	c0.018-0.004,0.369-0.683,0.369-0.683l1.126-0.06l0.058,0.469l0.479,0.134l0.465,0.265L50,13.539l0.352-0.579l-0.302-0.558
	c0,0,0.481-0.897,0.562-1.247c0.074-0.349,0.138-0.538,0.138-0.538l1.183-0.962l1.449-0.345l0.098-0.354c0,0,1.004,0.14,1.021,0.135
	c0.017-0.005,0.452-0.434,0.452-0.434l1.732-0.164L57.2,7.945l0.397,0.154l1.029-0.429l1.818,1.71c0,0,1.24-0.165,1.354,0.09
	c0.109,0.253,0.073,0.389,0.257,0.378c0.18-0.01,0.465,0.1,0.646-0.289c0.18-0.389,0.479-0.828,0.733-0.963
	c0.262-0.134,0.646-0.389,0.646-0.389L63.479,7.29l1.467-0.209l1.062,0.648l0.702-1.376l0.998-0.016l0.856,0.644l1.875-0.654
	l1.365-0.084l0.438,0.574l1.359,0.034l0.379,1.146L74.8,7.272l0.618,0.253l0.135,0.504l1.286,0.408c0,0,1.027,0.923,1.685,2.194
	l1.184,0.708l1.177,0.066l0.179,0.309l1.936,0.095l0.838,0.757l0.583,0.035l0.409,0.214L86.104,12.691z"/>
</svg>
